{
	"variables": [],
	"info": {
		"name": "Requete_TP03",
		"_postman_id": "535ffc06-e57c-bb8a-e13e-3b7cf8d8fa1b",
		"description": "",
		"schema": "https://schema.getpostman.com/json/collection/v2.0.0/collection.json"
	},
	"item": [
		{
			"name": "CRUD Lieux",
			"description": "",
			"item": [
				{
					"name": "Create",
					"description": "",
					"item": [
						{
							"name": "Ok",
							"event": [
								{
									"listen": "test",
									"script": {
										"type": "text/javascript",
										"exec": [
											"tests[\"Status code\"] = responseCode.code === 201;",
											"tests[\"Content-Type\"] = postman.getResponseHeader(\"Content-Type\") === \"application/json; charset=utf-8\";",
											"// Récupération des données reçues au format JSON.",
											"console.log(responseBody);",
											"var reponse = JSON.parse(responseBody);",
											"var lieu = reponse.data;",
											"const schema = JSON.parse(environment.json_schema_lieu);",
											"",
											"tests[\"Schema\"] = tv4.validate(lieu, schema);",
											"if (tv4.error !== null)",
											"    console.log(\"Message de validation schéma JSON publication) : \", tv4.error);",
											"tests[\"Pas de champs supplémentaires JSON\"] = Object.keys(lieu).length === Object.keys(schema.properties).length;",
											"console.log(Object.keys(lieu));",
											"console.log(Object.keys(schema.properties));",
											"tests[\"success\"] = reponse.success === true;",
											"tests[\"msg\"] = reponse.msg === \"Le lieu a bien été créée.\";",
											"tests[\"name\"] = lieu.name === \"Le meilleur magasin de tous\";",
											"tests[\"description\"] = lieu.description === \"Voici mon magasin préféré\";",
											"tests[\"parent\"] = lieu.parent === 505;",
											"tests[\"ancestors\"] = lieu.ancestors = [505];",
											"tests[\"type\"] = lieu.ancestors = \"lieu\";",
											"tests[\"geometry\"] = JSON.stringify(lieu.geometry) === JSON.stringify({\"type\":\"Point\",\"coordinates\":[-72.421875,52.052490476001]});",
											"",
											""
										]
									}
								}
							],
							"request": {
								"url": "{{url_base}}/Lieux",
								"method": "POST",
								"header": [
									{
										"key": "Content-Type",
										"value": "application/json",
										"description": ""
									},
									{
										"key": "Authorization",
										"value": "{{token}}",
										"description": ""
									}
								],
								"body": {
									"mode": "raw",
									"raw": "{\n    \"description\" : \"Voici mon magasin préféré    \",\n    \"name\" : \"Le meilleur magasin de tous\",\n    \"parent\" : 505,\n    \"geometry\" : {\n        \"type\" : \"Point\",\n        \"coordinates\" : [ \n            -72.421875, \n            52.052490476001\n        ]\n    }\n}"
								},
								"description": ""
							},
							"response": []
						},
						{
							"name": "Nom existant",
							"event": [
								{
									"listen": "test",
									"script": {
										"type": "text/javascript",
										"exec": [
											"tests[\"Status code\"] = responseCode.code === 400;",
											"tests[\"Content-Type\"] = postman.getResponseHeader(\"Content-Type\") === \"application/json; charset=utf-8\";",
											"// Récupération des données reçues au format JSON.",
											"var reponse = JSON.parse(responseBody);",
											"tests[\"success\"] = reponse.success === false;",
											"tests[\"msg\"] = reponse.msg === \"Il y a déjà un lieu portant le même nom.\";"
										]
									}
								}
							],
							"request": {
								"url": "{{url_base}}/Lieux",
								"method": "POST",
								"header": [
									{
										"key": "Content-Type",
										"value": "application/json",
										"description": ""
									},
									{
										"key": "Authorization",
										"value": "{{token}}",
										"description": ""
									}
								],
								"body": {
									"mode": "raw",
									"raw": "{\n    \"description\" : \"Voici mon magasin préféré    \",\n    \"name\" : \"Le meilleur magasin de tous\",\n    \"parent\" : 505,\n    \"geometry\" : {\n        \"type\" : \"Point\",\n        \"coordinates\" : [ \n            -72.421875, \n            52.052490476001\n        ]\n    }\n}"
								},
								"description": ""
							},
							"response": []
						},
						{
							"name": "Pas acces au parent",
							"event": [
								{
									"listen": "test",
									"script": {
										"type": "text/javascript",
										"exec": [
											"tests[\"Status code\"] = responseCode.code === 403;",
											"tests[\"Content-Type\"] = postman.getResponseHeader(\"Content-Type\") === \"application/json; charset=utf-8\";",
											"// Récupération des données reçues au format JSON.",
											"var reponse = JSON.parse(responseBody);",
											"tests[\"success\"] = reponse.success === false;",
											"tests[\"msg\"] = reponse.msg === \"Vous n'avez pas accès à la collection parent.\";"
										]
									}
								}
							],
							"request": {
								"url": "{{url_base}}/Lieux",
								"method": "POST",
								"header": [
									{
										"key": "Content-Type",
										"value": "application/json",
										"description": ""
									},
									{
										"key": "Authorization",
										"value": "{{token}}",
										"description": ""
									}
								],
								"body": {
									"mode": "raw",
									"raw": "{\n    \"description\" : \"Voici mon magasin préféré    \",\n    \"name\" : \"Le meilleur magasin de tous\",\n    \"parent\" : 503,\n    \"geometry\" : {\n        \"type\" : \"Point\",\n        \"coordinates\" : [ \n            -72.421875, \n            52.052490476001\n        ]\n    }\n}"
								},
								"description": ""
							},
							"response": []
						},
						{
							"name": "Parent inexistant",
							"event": [
								{
									"listen": "test",
									"script": {
										"type": "text/javascript",
										"exec": [
											"tests[\"Status code\"] = responseCode.code === 400;",
											"tests[\"Content-Type\"] = postman.getResponseHeader(\"Content-Type\") === \"application/json; charset=utf-8\";",
											"// Récupération des données reçues au format JSON.",
											"var reponse = JSON.parse(responseBody);",
											"tests[\"success\"] = reponse.success === false;",
											"tests[\"msg\"] = reponse.msg === \"La collection parent n'existe pas.\";"
										]
									}
								}
							],
							"request": {
								"url": "{{url_base}}/Lieux",
								"method": "POST",
								"header": [
									{
										"key": "Content-Type",
										"value": "application/json",
										"description": ""
									},
									{
										"key": "Authorization",
										"value": "{{token}}",
										"description": ""
									}
								],
								"body": {
									"mode": "raw",
									"raw": "{\n    \"description\" : \"Voici mon magasin préféré    \",\n    \"name\" : \"Le meilleur magasin de tous\",\n    \"parent\" : 1000,\n    \"geometry\" : {\n        \"type\" : \"Point\",\n        \"coordinates\" : [ \n            -72.421875, \n            52.052490476001\n        ]\n    }\n}"
								},
								"description": ""
							},
							"response": []
						}
					],
					"_postman_isSubFolder": true
				},
				{
					"name": "Delete",
					"description": "",
					"item": [
						{
							"name": "OK",
							"event": [
								{
									"listen": "test",
									"script": {
										"type": "text/javascript",
										"exec": [
											"tests[\"Status code\"] = responseCode.code === 204;",
											"tests[\"Content-Type\"] = postman.getResponseHeader(\"Content-Type\") === \"application/json; charset=utf-8\";",
											"// Récupération des données reçues au format JSON.",
											"var reponse = JSON.parse(responseBody);",
											"tests[\"success\"] = reponse.success === true;",
											"tests[\"msg\"] = reponse.msg === \"Le lieu a bien été supprimé.\";"
										]
									}
								}
							],
							"request": {
								"url": "{{url_base}}/Lieux/506",
								"method": "DELETE",
								"header": [
									{
										"key": "Authorization",
										"value": "{{token}}",
										"description": ""
									}
								],
								"body": {
									"mode": "raw",
									"raw": ""
								},
								"description": ""
							},
							"response": []
						},
						{
							"name": "Pas acces",
							"event": [
								{
									"listen": "test",
									"script": {
										"type": "text/javascript",
										"exec": [
											"tests[\"Status code\"] = responseCode.code === 403;",
											"tests[\"Content-Type\"] = postman.getResponseHeader(\"Content-Type\") === \"application/json; charset=utf-8\";",
											"// Récupération des données reçues au format JSON.",
											"var reponse = JSON.parse(responseBody);",
											"tests[\"success\"] = reponse.success === false;",
											"tests[\"msg\"] = reponse.msg === \"Vous n'avez pas accès au lieu.\";"
										]
									}
								}
							],
							"request": {
								"url": "{{url_base}}/Lieux/507",
								"method": "DELETE",
								"header": [
									{
										"key": "Authorization",
										"value": "{{token}}",
										"description": ""
									}
								],
								"body": {
									"mode": "raw",
									"raw": ""
								},
								"description": ""
							},
							"response": []
						},
						{
							"name": "Inexistant",
							"event": [
								{
									"listen": "test",
									"script": {
										"type": "text/javascript",
										"exec": [
											"tests[\"Status code\"] = responseCode.code === 404;",
											"tests[\"Content-Type\"] = postman.getResponseHeader(\"Content-Type\") === \"application/json; charset=utf-8\";",
											"// Récupération des données reçues au format JSON.",
											"var reponse = JSON.parse(responseBody);",
											"tests[\"success\"] = reponse.success === false;",
											"tests[\"msg\"] = reponse.msg === \"Le lieu n'existe pas.\";"
										]
									}
								}
							],
							"request": {
								"url": "{{url_base}}/Lieux/100000",
								"method": "DELETE",
								"header": [
									{
										"key": "Authorization",
										"value": "{{token}}",
										"description": ""
									}
								],
								"body": {
									"mode": "raw",
									"raw": ""
								},
								"description": ""
							},
							"response": []
						}
					],
					"_postman_isSubFolder": true
				},
				{
					"name": "Read",
					"description": "",
					"item": [
						{
							"name": "Ok",
							"event": [
								{
									"listen": "test",
									"script": {
										"type": "text/javascript",
										"exec": [
											"tests[\"Status code\"] = responseCode.code === 200;\r",
											"tests[\"Content-Type\"] = postman.getResponseHeader(\"Content-Type\") === \"application/json; charset=utf-8\";\r",
											"// Récupération des données reçues au format JSON.\"\r",
											"console.log(responseBody);\r",
											"var reponse = JSON.parse(responseBody);\r",
											"var lieu = reponse.data;\r",
											"const schema = JSON.parse(environment.json_schema_lieu);\r",
											"\r",
											"\r",
											"\r",
											""
										]
									}
								}
							],
							"request": {
								"url": "{{url_base}}/Lieux",
								"method": "GET",
								"header": [
									{
										"key": "Content-Type",
										"value": "application/json",
										"description": ""
									},
									{
										"key": "Authorization",
										"value": "{{token}}",
										"description": ""
									}
								],
								"body": {
									"mode": "raw",
									"raw": "{\n    \"description\" : \"Voici mon magasin préféré    \",\n    \"name\" : \"Le meilleur magasin de tous\",\n    \"parent\" : 505,\n    \"geometry\" : {\n        \"type\" : \"Point\",\n        \"coordinates\" : [ \n            -72.421875, \n            52.052490476001\n        ]\n    }\n}"
								},
								"description": ""
							},
							"response": []
						},
						{
							"name": "Bad Request",
							"event": [
								{
									"listen": "test",
									"script": {
										"type": "text/javascript",
										"exec": [
											"tests[\"Status code is 400\"] = responseCode.code === 400;",
											"tests[\"Content-Type est JSON et UTF-8\"] = postman.getResponseHeader(\"Content-Type\") === \"application/json; charset=utf-8\"; ",
											"",
											"console.log(responseBody);",
											"// Récupération des données reçues au format JSON.",
											"var reponse = JSON.parse(responseBody);",
											"var collection = reponse.data;",
											"",
											"tests[\"success\"] = reponse.success ===false;",
											"tests[\"msg\"] = reponse.msg ===\"Accès non autorisé.\"",
											""
										]
									}
								}
							],
							"request": {
								"url": "{{url_base}}/lieux/508",
								"method": "GET",
								"header": [
									{
										"key": "Content-Type",
										"value": "application/json",
										"description": ""
									},
									{
										"key": "Authorization",
										"value": "{{token}}",
										"description": "",
										"disabled": true
									}
								],
								"body": {
									"mode": "raw",
									"raw": ""
								},
								"description": "Consultation de la publication no. 11"
							},
							"response": []
						}
					],
					"_postman_isSubFolder": true
				},
				{
					"name": "Put",
					"description": "",
					"item": [
						{
							"name": "Ok",
							"event": [
								{
									"listen": "test",
									"script": {
										"type": "text/javascript",
										"exec": [
											"tests[\"Status code\"] = responseCode.code === 200;",
											"tests[\"Content-Type\"] = postman.getResponseHeader(\"Content-Type\") === \"application/json; charset=utf-8\";",
											"// Récupération des données reçues au format JSON.",
											"var reponse = JSON.parse(responseBody);",
											"var lieu = reponse.data;",
											"const schema = JSON.parse(environment.json_schema_lieu);",
											"",
											"",
											"tests[\"Schema\"] = tv4.validate(lieu, schema);",
											"if (tv4.error !== null)",
											"    console.log(\"Message de validation schéma JSON publication) : \", tv4.error);",
											"tests[\"Pas de champs supplémentaires JSON\"] = Object.keys(lieu).length === Object.keys(schema.properties).length;",
											"console.log(Object.keys(lieu));",
											"console.log(Object.keys(schema.properties));",
											"tests[\"success\"] = reponse.success === true;",
											"tests[\"msg\"] = reponse.msg ===  \"Le lieu a bien été modifié.\";",
											"",
											"tests[\"name\"] = lieu.name === \"Le meilleur magasin de tous\";",
											"tests[\"description\"] = lieu.description === \"Voici mon magasin préféré    \";",
											"tests[\"parent\"] = lieu.parent === 505;",
											"tests[\"ancestors\"] = lieu.ancestors = [505];",
											"tests[\"type\"] = lieu.ancestors = \"lieu\";",
											"tests[\"geometry\"] = JSON.stringify(lieu.geometry) === JSON.stringify({\"type\":\"Point\",\"coordinates\":[-72.421875,52.052490476001]});"
										]
									}
								}
							],
							"request": {
								"url": "{{url_base}}/lieux/506",
								"method": "PUT",
								"header": [
									{
										"key": "Authorization",
										"value": "{{token}}",
										"description": ""
									},
									{
										"key": "Content-Type",
										"value": "application/json",
										"description": ""
									}
								],
								"body": {
									"mode": "raw",
									"raw": "{\n    \"description\" : \"Voici mon magasin préféré    \",\n    \"name\" : \"Le meilleur magasin de tous\",\n    \"parent\" : 505,\n    \"geometry\" : {\n        \"type\" : \"Point\",\n        \"coordinates\" : [ \n            -72.421875, \n            52.052490476001\n        ]\n    }\n}"
								},
								"description": ""
							},
							"response": []
						},
						{
							"name": "Bad Request",
							"event": [
								{
									"listen": "test",
									"script": {
										"type": "text/javascript",
										"exec": [
											"tests[\"Status code\"] = responseCode.code === 200;",
											"tests[\"Content-Type\"] = postman.getResponseHeader(\"Content-Type\") === \"application/json; charset=utf-8\";",
											"// Récupération des données reçues au format JSON.",
											"var reponse = JSON.parse(responseBody);",
											"var lieu = reponse.data;",
											"const schema = JSON.parse(environment.json_schema_lieu);",
											"",
											"",
											"tests[\"Schema\"] = tv4.validate(lieu, schema);",
											"if (tv4.error !== null)",
											"    console.log(\"Message de validation schéma JSON publication) : \", tv4.error);",
											"tests[\"Pas de champs supplémentaires JSON\"] = Object.keys(lieu).length === Object.keys(schema.properties).length;",
											"console.log(Object.keys(lieu));",
											"console.log(Object.keys(schema.properties));",
											"tests[\"success\"] = reponse.success === true;",
											"tests[\"msg\"] = reponse.msg === \"Le lieu a bien été modifiée.\";",
											"tests[\"name\"] = lieu.name === \"Le meilleur magasin de tous\";",
											"tests[\"description\"] = lieu.description === \"Voici mon magasin préféré\";",
											"tests[\"parent\"] = lieu.parent === 505;",
											"tests[\"ancestors\"] = lieu.ancestors = [505];",
											"tests[\"type\"] = lieu.ancestors = \"lieu\";",
											"tests[\"geometry\"] = JSON.stringify(lieu.geometry) === JSON.stringify({\"type\":\"Point\",\"coordinates\":[-72.421875,52.052490476001]});"
										]
									}
								}
							],
							"request": {
								"url": "{{url_base}}/lieux/506",
								"method": "PUT",
								"header": [
									{
										"key": "Authorization",
										"value": "{{token}}",
										"description": ""
									},
									{
										"key": "Content-Type",
										"value": "application/json",
										"description": ""
									}
								],
								"body": {
									"mode": "raw",
									"raw": "{\n\t\"categorie\": \"vêtements     \",\n\t\"parent\": \"508\"\n}"
								},
								"description": ""
							},
							"response": []
						}
					],
					"_postman_isSubFolder": true
				}
			]
		},
		{
			"name": "Membre",
			"description": "",
			"item": []
		},
		{
			"name": "Authentification",
			"description": "",
			"item": [
				{
					"name": "Authentification membre existant",
					"request": {
						"url": "{{url_base}}/authenticate",
						"method": "POST",
						"header": [
							{
								"key": "Content-Type",
								"value": "application/json",
								"description": ""
							}
						],
						"body": {
							"mode": "raw",
							"raw": "{\n\t\"username\": \"utilisateur2\",\n\t\"password\": \"password\"\n}"
						},
						"description": ""
					},
					"response": []
				}
			]
		},
		{
			"name": "CRUD Collections",
			"description": "",
			"item": [
				{
					"name": "Create",
					"description": "",
					"item": [
						{
							"name": "Ok",
							"event": [
								{
									"listen": "test",
									"script": {
										"type": "text/javascript",
										"exec": [
											"tests[\"Status code\"] = responseCode.code === 200;",
											"tests[\"Content-Type\"] = postman.getResponseHeader(\"Content-Type\") === \"application/json; charset=utf-8\";",
											"// Récupération des données reçues au format JSON.",
											"console.log(responseBody);",
											"var reponse = JSON.parse(responseBody);",
											"var lieu = reponse.data;",
											"const schema = JSON.parse(environment.json_schema_lieu);",
											"",
											"tests[\"Schema\"] = tv4.validate(lieu, schema);",
											"if (tv4.error !== null)",
											"    console.log(\"Message de validation schéma JSON lieu) : \", tv4.error);",
											"tests[\"Pas de champs supplémentaires JSON\"] = Object.keys(lieu).length === Object.keys(schema.properties).length;",
											"",
											"tests[\"success\"] = reponse.success === true;",
											"tests[\"msg\"] = reponse.msg === \"Le lieu a bien été créée.\";",
											"tests[\"name\"] = lieu.name === \"Le meilleur magasin de tous\";",
											"tests[\"description\"] = lieu.description === \"Voici mon magasin préféré\";",
											"tests[\"parent\"] = lieu.parent === 505;",
											"tests[\"ancestors\"] = lieu.ancestors = [505];",
											"tests[\"type\"] = lieu.ancestors = \"lieu\";",
											"tests[\"geometry\"] = JSON.stringify(lieu.geometry) === JSON.stringify({\"type\":\"Point\",\"coordinates\":[-72.421875,52.052490476001]});",
											"",
											""
										]
									}
								}
							],
							"request": {
								"url": "{{url_base}}/collections",
								"method": "POST",
								"header": [
									{
										"key": "Content-Type",
										"value": "application/json",
										"description": ""
									},
									{
										"key": "Authorization",
										"value": "{{token}}",
										"description": ""
									}
								],
								"body": {
									"mode": "raw",
									"raw": "{\r\n\t\"_id\" : 500,\r\n\t\"categorie\" : \"restaurants\",\r\n    \"sharedWith\" : [],\r\n    \"children\" : [501],\r\n    \"parent\" : \"\",\r\n    \"type\" : \"collection\",\r\n    \"ancestors\" : []\r\n}"
								},
								"description": ""
							},
							"response": []
						},
						{
							"name": "nom existant",
							"event": [
								{
									"listen": "test",
									"script": {
										"type": "text/javascript",
										"exec": [
											"tests[\"Status code\"] = responseCode.code === 400;",
											"tests[\"Content-Type\"] = postman.getResponseHeader(\"Content-Type\") === \"application/json; charset=utf-8\";",
											"// Récupération des données reçues au format JSON.",
											"var reponse = JSON.parse(responseBody);",
											"tests[\"success\"] = reponse.success === false;",
											"tests[\"msg\"] = reponse.msg === \"Il y a déjà une collection portant le même nom.\";"
										]
									}
								}
							],
							"request": {
								"url": "{{url_base}}/collections",
								"method": "POST",
								"header": [
									{
										"key": "Content-Type",
										"value": "application/json",
										"description": ""
									},
									{
										"key": "Authorization",
										"value": "{{token}}",
										"description": ""
									}
								],
								"body": {
									"mode": "raw",
									"raw": "{\r\n\t\"_id\" : 500,\r\n\t\"categorie\" : \"restaurants\",\r\n    \"sharedWith\" : [],\r\n    \"children\" : [501],\r\n    \"parent\" : \"\",\r\n    \"type\" : \"collection\",\r\n    \"ancestors\" : []\r\n}"
								},
								"description": ""
							},
							"response": []
						},
						{
							"name": "Pas acces au parent",
							"event": [
								{
									"listen": "test",
									"script": {
										"type": "text/javascript",
										"exec": [
											"tests[\"Status code\"] = responseCode.code === 403;",
											"tests[\"Content-Type\"] = postman.getResponseHeader(\"Content-Type\") === \"application/json; charset=utf-8\";",
											"// Récupération des données reçues au format JSON.",
											"var reponse = JSON.parse(responseBody);",
											"tests[\"success\"] = reponse.success === false;",
											"tests[\"msg\"] = reponse.msg === \"Vous n'avez pas accès à la collection parent.\";"
										]
									}
								}
							],
							"request": {
								"url": "{{url_base}}/collections",
								"method": "POST",
								"header": [
									{
										"key": "Content-Type",
										"value": "application/json",
										"description": ""
									},
									{
										"key": "Authorization",
										"value": "{{token}}",
										"description": ""
									}
								],
								"body": {
									"mode": "raw",
									"raw": "{\n    \"description\" : \"Voici mon magasin préféré    \",\n    \"name\" : \"Le meilleur magasin de tous\",\n    \"parent\" : 503,\n    \"geometry\" : {\n        \"type\" : \"Point\",\n        \"coordinates\" : [ \n            -72.421875, \n            52.052490476001\n        ]\n    }\n}"
								},
								"description": ""
							},
							"response": []
						},
						{
							"name": "Parent inexistant",
							"event": [
								{
									"listen": "test",
									"script": {
										"type": "text/javascript",
										"exec": [
											"tests[\"Status code\"] = responseCode.code === 400;",
											"tests[\"Content-Type\"] = postman.getResponseHeader(\"Content-Type\") === \"application/json; charset=utf-8\";",
											"// Récupération des données reçues au format JSON.",
											"var reponse = JSON.parse(responseBody);",
											"tests[\"success\"] = reponse.success === false;",
											"tests[\"msg\"] = reponse.msg === \"La collection parent n'existe pas.\";"
										]
									}
								}
							],
							"request": {
								"url": "{{url_base}}/Lieux",
								"method": "POST",
								"header": [
									{
										"key": "Content-Type",
										"value": "application/json",
										"description": ""
									},
									{
										"key": "Authorization",
										"value": "{{token}}",
										"description": ""
									}
								],
								"body": {
									"mode": "raw",
									"raw": "{\n    \"description\" : \"Voici mon magasin préféré    \",\n    \"name\" : \"Le meilleur magasin de tous\",\n    \"parent\" : 1000,\n    \"geometry\" : {\n        \"type\" : \"Point\",\n        \"coordinates\" : [ \n            -72.421875, \n            52.052490476001\n        ]\n    }\n}"
								},
								"description": ""
							},
							"response": []
						}
					],
					"_postman_isSubFolder": true
				},
				{
					"name": "Read",
					"description": "",
					"item": [
						{
							"name": "Non existant",
							"event": [
								{
									"listen": "test",
									"script": {
										"type": "text/javascript",
										"exec": [
											"tests[\"Status code\"] = responseCode.code === 400;",
											"tests[\"Content-Type\"] = postman.getResponseHeader(\"Content-Type\") === \"application/json; charset=utf-8\";",
											"// Récupération des données reçues au format JSON.",
											"var reponse = JSON.parse(responseBody);",
											"tests[\"success\"] = reponse.success === false;",
											"tests[\"msg\"] = reponse.msg === \"Accès non autorisé.\";",
											""
										]
									}
								}
							],
							"request": {
								"url": "{{url_base}}/collections/500",
								"method": "GET",
								"header": [
									{
										"key": "Content-Type",
										"value": "application/json",
										"description": ""
									},
									{
										"key": "Authorization",
										"value": "{{token}}",
										"description": "",
										"disabled": true
									}
								],
								"body": {
									"mode": "raw",
									"raw": ""
								},
								"description": "Consultation de la publication no. 11"
							},
							"response": []
						},
						{
							"name": "Pas trouvé",
							"event": [
								{
									"listen": "test",
									"script": {
										"type": "text/javascript",
										"exec": [
											"tests[\"Status code\"] = responseCode.code === 404;",
											"tests[\"Content-Type\"] = postman.getResponseHeader(\"Content-Type\") === \"application/json; charset=utf-8\";",
											"// Récupération des données reçues au format JSON.",
											"var reponse = JSON.parse(responseBody);",
											"tests[\"success\"] = reponse.success === false;",
											"tests[\"msg\"] = reponse.msg === \"La collection n'a pas pu être trouvé\";",
											""
										]
									}
								}
							],
							"request": {
								"url": "{{url_base}}/collections/506",
								"method": "GET",
								"header": [
									{
										"key": "Content-Type",
										"value": "application/json",
										"description": ""
									},
									{
										"key": "Authorization",
										"value": "{{token}}",
										"description": ""
									}
								],
								"body": {
									"mode": "raw",
									"raw": ""
								},
								"description": "Consultation de la publication no. 11"
							},
							"response": []
						},
						{
							"name": "Ok Get toute",
							"event": [
								{
									"listen": "test",
									"script": {
										"type": "text/javascript",
										"exec": [
											"tests[\"Status code is 200\"] = responseCode.code === 200;",
											"tests[\"Content-Type est JSON et UTF-8\"] = postman.getResponseHeader(\"Content-Type\") === \"application/json; charset=utf-8\"; ",
											"var reponse = JSON.parse(responseBody);",
											"tests[\"success\"] = reponse.success === true;",
											"tests[\"msg\"] = reponse.msg===\"Les lieux on été trouvés\""
										]
									}
								}
							],
							"request": {
								"url": "{{url_base}}/collections",
								"method": "GET",
								"header": [
									{
										"key": "Content-Type",
										"value": "application/json",
										"description": ""
									},
									{
										"key": "Authorization",
										"value": "{{token}}",
										"description": ""
									}
								],
								"body": {
									"mode": "raw",
									"raw": ""
								},
								"description": "Consultation de la publication no. 11"
							},
							"response": []
						},
						{
							"name": "Accès non-autorisé",
							"event": [
								{
									"listen": "test",
									"script": {
										"type": "text/javascript",
										"exec": [
											"tests[\"Status code\"] = responseCode.code === 403;",
											"tests[\"Content-Type\"] = postman.getResponseHeader(\"Content-Type\") === \"application/json; charset=utf-8\";",
											"// Récupération des données reçues au format JSON.",
											"var reponse = JSON.parse(responseBody);",
											"tests[\"success\"] = reponse.success === false;",
											"tests[\"msg\"] = reponse.msg ===  \"Le membre n'a pas les accès nécessaires\";"
										]
									}
								}
							],
							"request": {
								"url": "{{url_base}}/collections/500",
								"method": "GET",
								"header": [
									{
										"key": "Content-Type",
										"value": "application/json",
										"description": ""
									},
									{
										"key": "Authorization",
										"value": "{{token}}",
										"description": ""
									}
								],
								"body": {
									"mode": "raw",
									"raw": ""
								},
								"description": "Consultation de la publication no. 11"
							},
							"response": []
						},
						{
							"name": "Ok",
							"event": [
								{
									"listen": "test",
									"script": {
										"type": "text/javascript",
										"exec": [
											"tests[\"Status code\"] = responseCode.code === 200;",
											"tests[\"Content-Type\"] = postman.getResponseHeader(\"Content-Type\") === \"application/json; charset=utf-8\";",
											"// Récupération des données reçues au format JSON.",
											"var reponse = JSON.parse(responseBody);",
											"tests[\"success\"] = reponse.success === false;",
											"tests[\"msg\"] = reponse.msg === \"La collection a été trouvé.\";",
											""
										]
									}
								}
							],
							"request": {
								"url": "{{url_base}}/collections/505",
								"method": "GET",
								"header": [
									{
										"key": "Content-Type",
										"value": "application/json",
										"description": ""
									},
									{
										"key": "Authorization",
										"value": "{{token}}",
										"description": ""
									}
								],
								"body": {
									"mode": "raw",
									"raw": ""
								},
								"description": "Consultation de la publication no. 11"
							},
							"response": []
						}
					],
					"_postman_isSubFolder": true
				},
				{
					"name": "Delete",
					"description": "",
					"item": [
						{
							"name": "Ok",
							"event": [
								{
									"listen": "test",
									"script": {
										"type": "text/javascript",
										"exec": [
											"tests[\"Status code is 200\"] = responseCode.code === 200;",
											"tests[\"Content-Type est JSON et UTF-8\"] = postman.getResponseHeader(\"Content-Type\") === \"application/json; charset=utf-8\"; ",
											""
										]
									}
								}
							],
							"request": {
								"url": "{{url_base}}/collections/500",
								"method": "DELETE",
								"header": [
									{
										"key": "Content-Type",
										"value": "application/json",
										"description": ""
									},
									{
										"key": "Authorization",
										"value": "{{token}}",
										"description": ""
									}
								],
								"body": {
									"mode": "raw",
									"raw": "{\r\n\t\"_id\" : 500,\r\n\t\"categorie\" : \"restaurants\",\r\n    \"sharedWith\" : [],\r\n    \"children\" : [501],\r\n    \"parent\" : \"\",\r\n    \"type\" : \"collection\",\r\n    \"ancestors\" : []\r\n}"
								},
								"description": "Consultation de la publication no. 11"
							},
							"response": []
						},
						{
							"name": "Collection pas au membre",
							"request": {
								"url": "{{url_base}}/collections/506",
								"method": "DELETE",
								"header": [
									{
										"key": "Content-Type",
										"value": "application/json",
										"description": ""
									},
									{
										"key": "Authorization",
										"value": "{{token}}",
										"description": ""
									}
								],
								"body": {
									"mode": "raw",
									"raw": ""
								},
								"description": "Consultation de la publication no. 11"
							},
							"response": []
						},
						{
							"name": "Bad request",
							"event": [
								{
									"listen": "test",
									"script": {
										"type": "text/javascript",
										"exec": [
											"tests[\"Status code is 200\"] = responseCode.code === 400;",
											"tests[\"Content-Type est JSON et UTF-8\"] = postman.getResponseHeader(\"Content-Type\") === \"application/json; charset=utf-8\"; ",
											"tests[\"success\"] ===false;",
											"tests[\"msg\"] === \"Accès non autorisé.\""
										]
									}
								}
							],
							"request": {
								"url": "{{url_base}}/collections/505",
								"method": "DELETE",
								"header": [
									{
										"key": "Authorization",
										"value": "{{token}}",
										"description": ""
									},
									{
										"key": "Content-Type",
										"value": "application/json",
										"description": ""
									}
								],
								"body": {
									"mode": "raw",
									"raw": ""
								},
								"description": "Consultation de la publication no. 11"
							},
							"response": []
						}
					],
					"_postman_isSubFolder": true
				},
				{
					"name": "Update",
					"description": "",
					"item": [
						{
							"name": "Ok",
							"event": [
								{
									"listen": "test",
									"script": {
										"type": "text/javascript",
										"exec": [
											"tests[\"Status code\"] = responseCode.code === 403;",
											"tests[\"Content-Type\"] = postman.getResponseHeader(\"Content-Type\") === \"application/json; charset=utf-8\";",
											"// Récupération des données reçues au format JSON.",
											"var reponse = JSON.parse(responseBody);",
											"var collection = reponse.data;",
											"const schema = JSON.parse(environment.json_schema_collection);",
											"",
											"tests[\"Schema\"] = tv4.validate(lieu, schema);",
											"if (tv4.error !== null)",
											"    console.log(\"Message de validation schéma JSON publication) : \", tv4.error);",
											"tests[\"Pas de champs supplémentaires JSON\"] = Object.keys(lieu).length === Object.keys(schema.properties).length;",
											"console.log(Object.keys(lieu));",
											"console.log(Object.keys(schema.properties));",
											"tests[\"success\"] = reponse.success === true;",
											"tests[\"msg\"] = reponse.msg === \"La collection a bien été modifiée.\";",
											"tests[\"categorie\"] = collection.categorie === \"vêtements\";",
											"tests[\"sharedWith\"] = collection.sharedWith === [];",
											"tests[\"children\"] = collection.children === [];",
											"tests[\"parent\"] = collection.children === 505;",
											"tests[\"type\"] = collection.type === \"collection\";",
											"tests[\"ancestors\"] = collection.ancestors === [505];"
										]
									}
								}
							],
							"request": {
								"url": "{{url_base}}/Collections/508",
								"method": "PUT",
								"header": [
									{
										"key": "Authorization",
										"value": "{{token}}",
										"description": ""
									},
									{
										"key": "Content-Type",
										"value": "application/json",
										"description": ""
									}
								],
								"body": {
									"mode": "raw",
									"raw": "{\n\t\"categorie\": \"vêtements     \",\n\t\"parent\": \"505\"\n}"
								},
								"description": ""
							},
							"response": []
						},
						{
							"name": "Id inexistant",
							"event": [
								{
									"listen": "test",
									"script": {
										"type": "text/javascript",
										"exec": [
											"tests[\"Status code\"] = responseCode.code === 404;",
											"tests[\"Content-Type\"] = postman.getResponseHeader(\"Content-Type\") === \"application/json; charset=utf-8\";",
											"// Récupération des données reçues au format JSON.",
											"var reponse = JSON.parse(responseBody);",
											"tests[\"success\"] = reponse.success === false;",
											"tests[\"msg\"] = reponse.msg === \"La collection que vous tentez de modifier n'existe pas.\";"
										]
									}
								}
							],
							"request": {
								"url": "{{url_base}}/Collections/1000",
								"method": "PUT",
								"header": [
									{
										"key": "Authorization",
										"value": "{{token}}",
										"description": ""
									},
									{
										"key": "Content-Type",
										"value": "application/json",
										"description": ""
									}
								],
								"body": {
									"mode": "raw",
									"raw": "{\n\t\"categorie\": \"nouvelle categorie\"\n}"
								},
								"description": ""
							},
							"response": []
						},
						{
							"name": "Pas acces",
							"event": [
								{
									"listen": "test",
									"script": {
										"type": "text/javascript",
										"exec": [
											"tests[\"Status code\"] = responseCode.code === 403;",
											"tests[\"Content-Type\"] = postman.getResponseHeader(\"Content-Type\") === \"application/json; charset=utf-8\";",
											"// Récupération des données reçues au format JSON.",
											"var reponse = JSON.parse(responseBody);",
											"tests[\"success\"] = reponse.success === false;",
											"tests[\"msg\"] = reponse.msg === \"Vous n'avez pas accès à la collection.\";"
										]
									}
								}
							],
							"request": {
								"url": "{{url_base}}/Collections/500",
								"method": "PUT",
								"header": [
									{
										"key": "Authorization",
										"value": "{{token}}",
										"description": ""
									},
									{
										"key": "Content-Type",
										"value": "application/json",
										"description": ""
									}
								],
								"body": {
									"mode": "raw",
									"raw": "{\n\t\"categorie\": \"nouvelle categorie\"\n}"
								},
								"description": ""
							},
							"response": []
						},
						{
							"name": "Pas acces au parent",
							"event": [
								{
									"listen": "test",
									"script": {
										"type": "text/javascript",
										"exec": [
											"tests[\"Status code\"] = responseCode.code === 403;",
											"tests[\"Content-Type\"] = postman.getResponseHeader(\"Content-Type\") === \"application/json; charset=utf-8\";",
											"// Récupération des données reçues au format JSON.",
											"var reponse = JSON.parse(responseBody);",
											"tests[\"success\"] = reponse.success === false;",
											"tests[\"msg\"] = reponse.msg === \"Vous n'avez pas accès au parent.\";"
										]
									}
								}
							],
							"request": {
								"url": "{{url_base}}/Collections/505",
								"method": "PUT",
								"header": [
									{
										"key": "Authorization",
										"value": "{{token}}",
										"description": ""
									},
									{
										"key": "Content-Type",
										"value": "application/json",
										"description": ""
									}
								],
								"body": {
									"mode": "raw",
									"raw": "{\n\t\"categorie\": \"nouvelle categorie\",\n\t\"parent\": \"500\"\n}"
								},
								"description": ""
							},
							"response": []
						}
					],
					"_postman_isSubFolder": true
				}
			]
		}
	]
}